<svg id="Bold" height="32" fill="#53565A"  width="32" viewBox="0 0 32 32" xmlns="http://www.w3.org/2000/svg">
    <path d="m22.026 24c-.526 0-1.022-.205-1.396-.578l-2.652-2.653c-.669-.668-1.515-1.104-2.446-1.259l-2.155-.359c-1.528-.255-2.58-1.702-2.344-3.227.429-2.771 2.12-4.462 4.891-4.891 1.535-.238 2.973.815 3.228 2.344l.358 2.155c.156.932.592 1.778 1.259 2.446l2.653 2.653h.001c.768.769.768 2.021 0 2.79-.373.373-.869.579-1.397.579zm-5.672-11c-.041 0-.082.003-.124.01-1.903.294-2.927 1.317-3.221 3.22-.069.447.243.873.695.948l2.155.359c1.149.191 2.208.677 3.094 1.416-.738-.884-1.225-1.943-1.417-3.092l-.358-2.156c-.068-.41-.424-.705-.824-.705z"/>
    <path d="m10.5 0c-5.79 0-10.5 4.71-10.5 10.5s4.71 10.5 10.5 10.5c.94 0 1.85-.12 2.71-.36l-.08-.01c-1.12-.19-2.07-.79-2.72-1.63-4.65-.05-8.41-3.84-8.41-8.5 0-4.69 3.81-8.5 8.5-8.5 4.66 0 8.45 3.76 8.5 8.41.84.65 1.44 1.6 1.63 2.72l.01.08c.24-.86.36-1.77.36-2.71 0-5.79-4.71-10.5-10.5-10.5z"/>
    <path d="m10.5 4c-3.58 0-6.5 2.92-6.5 6.5 0 3.25 2.41 5.96 5.54 6.42-.06-.4-.05-.81.01-1.23.04-.26.09-.51.16-.76-2.11-.38-3.71-2.22-3.71-4.43 0-2.48 2.02-4.5 4.5-4.5 2.21 0 4.05 1.6 4.43 3.71.25-.07.5-.12.77-.16.41-.06.82-.07 1.22-.01-.46-3.13-3.17-5.54-6.42-5.54z"/>
</svg>
